…
```r
install.packages("tidyverse")
library(tidyverse)
```



Together with the tidyverse, you get a built in data set called `starwars`, containing information about the characters from the Star Wars films. We will use this data set for most of this tutorial. Since it's already loaded, all you have to do to access it is run:


```r
starwars
#> # A tibble: 87 x 14
#>    name  height  mass hair_color skin_color eye_color birth_year sex   gender
#>    <chr>  <int> <dbl> <chr>      <chr>      <chr>          <dbl> <chr> <chr> 
#>  1 Luke~    172    77 blond      fair       blue            19   male  mascu~
#>  2 C-3PO    167    75 <NA>       gold       yellow         112   none  mascu~
#>  3 R2-D2     96    32 <NA>       white, bl~ red             33   none  mascu~
#>  4 Dart~    202   136 none       white      yellow          41.9 male  mascu~
#>  5 Leia~    150    49 brown      light      brown           19   fema~ femin~
#>  6 Owen~    178   120 brown, gr~ light      blue            52   male  mascu~
#>  7 Beru~    165    75 brown      light      blue            47   fema~ femin~
#>  8 R5-D4     97    32 <NA>       white, red red             NA   none  mascu~
#>  9 Bigg~    183    84 black      light      brown           24   male  mascu~
#> 10 Obi-~    182    77 auburn, w~ fair       blue-gray       57   male  mascu~
#> # ... with 77 more rows, and 5 more variables: homeworld <chr>, species <chr>,
#> #   films <list>, vehicles <list>, starships <list>
```
…
```r
# with names
starwars[, c('name', 'homeworld')]
# with indices
starwars[, c(1, 9)]
```

With `dplyr` we can do the following:


```r
select(starwars, name, homeworld)
#> # A tibble: 87 x 2
#>    name               homeworld
#>    <chr>              <chr>    
#>  1 Luke Skywalker     Tatooine 
#>  2 C-3PO              Tatooine 
#>  3 R2-D2              Naboo    
#>  4 Darth Vader        Tatooine 
#>  5 Leia Organa        Alderaan 
#>  6 Owen Lars          Tatooine 
#>  7 Beru Whitesun lars Tatooine 
#>  8 R5-D4              Tatooine 
#>  9 Biggs Darklighter  Tatooine 
#> 10 Obi-Wan Kenobi     Stewjon  
#> # ... with 77 more rows
```
…
Imagine that you want to calculate the mean height of the people (and droids) in the `starwars` data set. You could use `mean()` on the column to achieve this (note the use of `na.rm` since the height column contains `NA`s):


```r
mean(starwars$height, na.rm = TRUE)
#> [1] 174.358
```

But what if you want to calculate the mean height separately for e.g. the different species? One way to do this is to do a *grouped summary*. Your group is the `species` column, and your summary statistic is `mean`. We create groups using the `group_by()` function:


```r
starwars %>% group_by(species)
#> # A tibble: 87 x 14
#> # Groups:   species [38]
#>    name  height  mass hair_color skin_color eye_color birth_year sex   gender
#>    <chr>  <int> <dbl> <chr>      <chr>      <chr>          <dbl> <chr> <chr> 
#>  1 Luke~    172    77 blond      fair       blue            19   male  mascu~
#>  2 C-3PO    167    75 <NA>       gold       yellow         112   none  mascu~
#>  3 R2-D2     96    32 <NA>       white, bl~ red             33   none  mascu~
#>  4 Dart~    202   136 none       white      yellow          41.9 male  mascu~
#>  5 Leia~    150    49 brown      light      brown           19   fema~ femin~
#>  6 Owen~    178   120 brown, gr~ light      blue            52   male  mascu~
#>  7 Beru~    165    75 brown      light      blue            47   fema~ femin~
#>  8 R5-D4     97    32 <NA>       white, red red             NA   none  mascu~
#>  9 Bigg~    183    84 black      light      brown           24   male  mascu~
#> 10 Obi-~    182    77 auburn, w~ fair       blue-gray       57   male  mascu~
#> # ... with 77 more rows, and 5 more variables: homeworld <chr>, species <chr>,
#> #   films <list>, vehicles <list>, starships <list>
```

Notice that nothing has changed in the data, but at the top you can see the text `# Groups:   species [38]`, showing that you indeed have created a group, and that you have 38 different species in your data. The main use of `group_by()` is together with `summarise()`, which does a summary based on the groups you've created:


```r
starwars %>% 
  group_by(species) %>% #create group
  summarise(mean_height = mean(height, na.rm = TRUE)) # calculate summary statistic
#> # A tibble: 38 x 2
#>    species   mean_height
#>    <chr>           <dbl>
#>  1 Aleena            79 
#>  2 Besalisk         198 
#>  3 Cerean           198 
#>  4 Chagrian         196 
#>  5 Clawdite         168 
#>  6 Droid            131.
#>  7 Dug              112 
#>  8 Ewok              88 
#>  9 Geonosian        183 
#> 10 Gungan           209.
#> # ... with 28 more rows
```

Note how again, like in `data.frame`, the argument name to `summarise` becomes the column name in your new data frame. You can use several summary functions inside `summarise()`, like `median()`, `sd()`, `sum()` and `max()` to name some. You can also do several summaries within a single `summarise()` function:


```r
starwars %>% 
  group_by(species) %>%
  summarise(mean_height = mean(height, na.rm = TRUE),
            median_height = median(height, na.rm = TRUE),
            sd_height = sd(height, na.rm = TRUE))
#> # A tibble: 38 x 4
#>    species   mean_height median_height sd_height
#>    <chr>           <dbl>         <dbl>     <dbl>
#>  1 Aleena            79             79      NA  
#>  2 Besalisk         198            198      NA  
#>  3 Cerean           198            198      NA  
#>  4 Chagrian         196            196      NA  
#>  5 Clawdite         168            168      NA  
#>  6 Droid            131.            97      49.1
#>  7 Dug              112            112      NA  
#>  8 Ewok              88             88      NA  
#>  9 Geonosian        183            183      NA  
#> 10 Gungan           209.           206      14.2
#> # ... with 28 more rows
```

We can even group by several variables, creating more detailed summaries:


```r
starwars %>%
  group_by(homeworld, sex) %>%
  summarise(mean_height = mean(height, na.rm = TRUE))
#> # A tibble: 61 x 3
#> # Groups:   homeworld [49]
#>    homeworld      sex    mean_height
#>    <chr>          <chr>        <dbl>
#>  1 Alderaan       female        150 
#>  2 Alderaan       male          190.
#>  3 Aleen Minor    male           79 
#>  4 Bespin         male          175 
#>  5 Bestine IV     male          180 
#>  6 Cato Neimoidia male          191 
#>  7 Cerea          male          198 
#>  8 Champala       male          196 
#>  9 Chandrila      female        150 
#> 10 Concord Dawn   male          183 
#> # ... with 51 more rows
```

Now you get two groups for homeworld Alderaan, one with males and one with females. For the following homeworld groups there are only males, so you just get one group for each (giving a pretty accurate picture of the gender balance in Star Wars).

#### Counting how many observations we have in our groups with `tally()`

When we have created our groups, we can also use the `tally()` function to count the number of observations we have in the groups:


```r
starwars %>% 
  group_by(species) %>%
  tally()
#> # A tibble: 38 x 2
#>    species       n
#>    <chr>     <int>
#>  1 Aleena        1
#>  2 Besalisk      1
#>  3 Cerean        1
#>  4 Chagrian      1
#>  5 Clawdite      1
#>  6 Droid         6
#>  7 Dug           1
#>  8 Ewok          1
#>  9 Geonosian     1
#> 10 Gungan        3
#> # ... with 28 more rows
```
…
### Reshape the data

As you hopefully figured out, this data is in so-called wide format, and we need to make it long with `pivot_longer()`. `pivot_longer()` has two important arguments called `names_to` and `values_to`. In our case `names_to` is the name of the new column of species, and `values_to` is the name of the new column where our values go. In addition, you need to provide the columns that you want to reshape. We can reshape this data like this:


```r
copepods_long <- copepods %>%
  pivot_longer(c(acartia, calanus, harpacticoida, oithona, oncaea, temora),
               names_to = "species", values_to = "count")

copepods_long
#> # A tibble: 54 x 3
#>    depth species       count
#>    <int> <chr>         <int>
#>  1     0 acartia           0
#>  2     0 calanus           3
#>  3     0 harpacticoida     0
#>  4     0 oithona           2
#>  5     0 oncaea            0
#>  6     0 temora            0
#>  7     2 acartia           1
#>  8     2 calanus           0
#>  9     2 harpacticoida     0
#> 10     2 oithona           6
#> # ... with 44 more rows
```
…
