10.2 More on data handling: categorising and joining | R tutorials for the course BIOS1140 at the University of Oslo
…
Handling large amounts of data with few lines of code is one of R’s strong points. In this section we will show how you can use ifelse() and the left_join() function from dplyr to make categories and add information to your data

10.2.1 ifelse() for making categories

Let’s first review what the ifelse() function does. As you learned back in chapter 5, ifelse() takes a logical statement, and returns something different depending on whether the condition is TRUE or FALSE:

# make a small vector
y <- c(20, 30, 50)
# use ifelse to evaluate it
ifelse(y > 25, "Greater than 25", "Not greater than 25")

This function can be extremely useful for creating new variables in datasets. Let’s return to the familiar starwars data from dplyr in order to use the function in this way.

starwars
#> # A tibble: 87 × 14
#>    name     height  mass hair_color skin_color eye_color birth_year sex   gender
#>    <chr>     <int> <dbl> <chr>      <chr>      <chr>          <dbl> <chr> <chr> 
#>  1 Luke Sk…    172    77 blond      fair       blue            19   male  mascu…
#>  2 C-3PO       167    75 <NA>       gold       yellow         112   none  mascu…
#>  3 R2-D2        96    32 <NA>       white, bl… red             33   none  mascu…
#>  4 Darth V…    202   136 none       white      yellow          41.9 male  mascu…
#>  5 Leia Or…    150    49 brown      light      brown           19   fema… femin…
#>  6 Owen La…    178   120 brown, gr… light      blue            52   male  mascu…
#>  7 Beru Wh…    165    75 brown      light      blue            47   fema… femin…
#>  8 R5-D4        97    32 <NA>       white, red red             NA   none  mascu…
#>  9 Biggs D…    183    84 black      light      brown           24   male  mascu…
#> 10 Obi-Wan…    182    77 auburn, w… fair       blue-gray       57   male  mascu…
#> # … with 77 more rows, and 5 more variables: homeworld <chr>, species <chr>,
#> #   films <list>, vehicles <list>, starships <list>
…
Next, we use pivot_longer() to get all taxa in a single column, i.e., convert to long format. See if you manage to do this yourself before looking at my code below.

copepods_long <- pivot_longer(copepods, 
                              -depth, 
                              names_to = "taxon", 
                              values_to = "count")

copepods_long
#> # A tibble: 54 × 3
#>    depth taxon         count
#>    <int> <chr>         <int>
#>  1     0 acartia           0
#>  2     0 calanus           3
#>  3     0 harpacticoida     0
#>  4     0 oithona           2
#>  5     0 oncaea            0
#>  6     0 temora            0
#>  7     2 acartia           1
#>  8     2 calanus           0
#>  9     2 harpacticoida     0
#> 10     2 oithona           6
#> # … with 44 more rows
…
Instead, you can use the left_join() function from dplyr. You have to supply it the original data, the data you want to join with, and a vector of column names to join by (here “depth”).

copepods_temp <- left_join(copepods_long, temps, by = "depth")
copepods_temp
#> # A tibble: 54 × 5
#>    depth taxon         count depthtemp  temp
#>    <dbl> <chr>         <int>     <dbl> <dbl>
#>  1     0 acartia           0      15.5  15.5
#>  2     0 calanus           3      15.5  15.5
#>  3     0 harpacticoida     0      15.5  15.5
#>  4     0 oithona           2      15.5  15.5
#>  5     0 oncaea            0      15.5  15.5
#>  6     0 temora            0      15.5  15.5
#>  7     2 acartia           1      15.4  15.4
#>  8     2 calanus           0      15.4  15.4
#>  9     2 harpacticoida     0      15.4  15.4
#> 10     2 oithona           6      15.4  15.4
#> # … with 44 more rows
…
