2.2 Using dplyr to work with your data | R tutorials for the course BIOS1140 at the University of Oslo
…
            R tutorials for the course BIOS1140 at the University of Oslo

2.2 Using dplyr to work with your data

First, we have to install and load the tidyverse.7

install.packages("tidyverse")
library(tidyverse)

Together with the tidyverse, you get a built in data set called starwars, containing information about the characters from the Star Wars films. We will use this data set for most of this tutorial. Since it’s already loaded, all you have to do to access it is run:

starwars
#> # A tibble: 87 × 14
#>    name     height  mass hair_color skin_color eye_color birth_year sex   gender
#>    <chr>     <int> <dbl> <chr>      <chr>      <chr>          <dbl> <chr> <chr> 
#>  1 Luke Sk…    172    77 blond      fair       blue            19   male  mascu…
#>  2 C-3PO       167    75 <NA>       gold       yellow         112   none  mascu…
#>  3 R2-D2        96    32 <NA>       white, bl… red             33   none  mascu…
#>  4 Darth V…    202   136 none       white      yellow          41.9 male  mascu…
#>  5 Leia Or…    150    49 brown      light      brown           19   fema… femin…
#>  6 Owen La…    178   120 brown, gr… light      blue            52   male  mascu…
#>  7 Beru Wh…    165    75 brown      light      blue            47   fema… femin…
#>  8 R5-D4        97    32 <NA>       white, red red             NA   none  mascu…
#>  9 Biggs D…    183    84 black      light      brown           24   male  mascu…
#> 10 Obi-Wan…    182    77 auburn, w… fair       blue-gray       57   male  mascu…
#> # ℹ 77 more rows
#> # ℹ 5 more variables: homeworld <chr>, species <chr>, films <list>,
#> #   vehicles <list>, starships <list>
…
The pipe operator %>% allows you to send an object from the left side of the pipe to a function on the right side.

2.2.2 Selecting columns with select()

Lets say we want to choose the name and homeworld columns from our starwars data, how can we do that? With standard R, we might do something like this.

# with names
starwars[, c('name', 'homeworld')]
# with indices
starwars[, c(1, 9)]

With dplyr we can do the following:

select(starwars, name, homeworld)
#> # A tibble: 87 × 2
#>    name               homeworld
#>    <chr>              <chr>    
#>  1 Luke Skywalker     Tatooine 
#>  2 C-3PO              Tatooine 
#>  3 R2-D2              Naboo    
#>  4 Darth Vader        Tatooine 
#>  5 Leia Organa        Alderaan 
#>  6 Owen Lars          Tatooine 
#>  7 Beru Whitesun Lars Tatooine 
#>  8 R5-D4              Tatooine 
#>  9 Biggs Darklighter  Tatooine 
#> 10 Obi-Wan Kenobi     Stewjon  
#> # ℹ 77 more rows
…
Important concept:

- filter() is used to select specific rows. Example: filter(height < 100) - select() is used to select specific columns. Example: select(name, height)

2.2.4 Grouped summaries with group_by() and summarise()

Imagine that you want to calculate the mean height of the people (and droids) in the starwars data set. You could use mean() on the column to achieve this (note the use of na.rm since the height column contains NAs):

mean(starwars$height, na.rm = TRUE)
#> [1] 174.6049

But what if you want to calculate the mean height separately for e.g. the different species? One way to do this is to do a grouped summary. Your group is the species column, and your summary statistic is mean. We create groups using the group_by() function:

starwars %>% group_by(species)
#> # A tibble: 87 × 14
#> # Groups:   species [38]
#>    name     height  mass hair_color skin_color eye_color birth_year sex   gender
#>    <chr>     <int> <dbl> <chr>      <chr>      <chr>          <dbl> <chr> <chr> 
#>  1 Luke Sk…    172    77 blond      fair       blue            19   male  mascu…
#>  2 C-3PO       167    75 <NA>       gold       yellow         112   none  mascu…
#>  3 R2-D2        96    32 <NA>       white, bl… red             33   none  mascu…
#>  4 Darth V…    202   136 none       white      yellow          41.9 male  mascu…
#>  5 Leia Or…    150    49 brown      light      brown           19   fema… femin…
#>  6 Owen La…    178   120 brown, gr… light      blue            52   male  mascu…
#>  7 Beru Wh…    165    75 brown      light      blue            47   fema… femin…
#>  8 R5-D4        97    32 <NA>       white, red red             NA   none  mascu…
#>  9 Biggs D…    183    84 black      light      brown           24   male  mascu…
#> 10 Obi-Wan…    182    77 auburn, w… fair       blue-gray       57   male  mascu…
#> # ℹ 77 more rows
#> # ℹ 5 more variables: homeworld <chr>, species <chr>, films <list>,
#> #   vehicles <list>, starships <list>

Notice that nothing has changed in the data, but at the top you can see the text # Groups:   species [38], showing that you indeed have created a group, and that you have 38 different species in your data. The main use of group_by() is together with summarise(), which does a summary based on the groups you’ve created:

starwars %>% 
  group_by(species) %>% #create group
  summarise(mean_height = mean(height, na.rm = TRUE)) # calculate summary statistic
#> # A tibble: 38 × 2
#>    species   mean_height
#>    <chr>           <dbl>
#>  1 Aleena            79 
#>  2 Besalisk         198 
#>  3 Cerean           198 
#>  4 Chagrian         196 
#>  5 Clawdite         168 
#>  6 Droid            131.
#>  7 Dug              112 
#>  8 Ewok              88 
#>  9 Geonosian        183 
#> 10 Gungan           209.
#> # ℹ 28 more rows

Note how again, like in data.frame, the argument name to summarise becomes the column name in your new data frame. You can use several summary functions inside summarise(), like median(), sd(), sum() and max() to name some. You can also do several summaries within a single summarise() function:

starwars %>% 
  group_by(species) %>%
  summarise(mean_height = mean(height, na.rm = TRUE),
            median_height = median(height, na.rm = TRUE),
            sd_height = sd(height, na.rm = TRUE))
#> # A tibble: 38 × 4
#>    species   mean_height median_height sd_height
#>    <chr>           <dbl>         <dbl>     <dbl>
#>  1 Aleena            79             79      NA  
#>  2 Besalisk         198            198      NA  
#>  3 Cerean           198            198      NA  
#>  4 Chagrian         196            196      NA  
#>  5 Clawdite         168            168      NA  
#>  6 Droid            131.            97      49.1
#>  7 Dug              112            112      NA  
#>  8 Ewok              88             88      NA  
#>  9 Geonosian        183            183      NA  
#> 10 Gungan           209.           206      14.2
#> # ℹ 28 more rows

We can even group by several variables, creating more detailed summaries:

starwars %>%
  group_by(homeworld, sex) %>%
  summarise(mean_height = mean(height, na.rm = TRUE))
#> # A tibble: 60 × 3
#> # Groups:   homeworld [49]
#>    homeworld      sex    mean_height
#>    <chr>          <chr>        <dbl>
#>  1 Alderaan       female        150 
#>  2 Alderaan       male          190.
#>  3 Aleen Minor    male           79 
#>  4 Bespin         male          175 
#>  5 Bestine IV     <NA>          180 
#>  6 Cato Neimoidia male          191 
#>  7 Cerea          male          198 
#>  8 Champala       male          196 
#>  9 Chandrila      female        150 
#> 10 Concord Dawn   male          183 
#> # ℹ 50 more rows

Now you get two groups for homeworld Alderaan, one with males and one with females. For the following homeworld groups there are only males (except Chandrila, with only females), so you just get one group for each (giving a pretty accurate picture of the gender balance in Star Wars).

2.2.4.1 Counting how many observations we have in our groups with tally()

When we have created our groups, we can also use the tally() function to count the number of observations we have in the groups:

starwars %>% 
  group_by(species) %>%
  tally()
#> # A tibble: 38 × 2
#>    species       n
#>    <chr>     <int>
#>  1 Aleena        1
#>  2 Besalisk      1
#>  3 Cerean        1
#>  4 Chagrian      1
#>  5 Clawdite      1
#>  6 Droid         6
#>  7 Dug           1
#>  8 Ewok          1
#>  9 Geonosian     1
#> 10 Gungan        3
#> # ℹ 28 more rows
…
